{
	"auths": {
		"https://index.docker.io/v1/": {
			"auth": "ZmVkb3RjaGVua28uaXVsaWlhQGdtYWlsLmNvbTozMTA5MTdMdW5h"
		},
		"registry.gitlab.com": {
			"auth": "ZmVkb3RjaGVua28uaXVsaWlhQGdtYWlsLmNvbTpnbHBhdC14emJpMWNlMU1fNl9VRndIbkRjaA=="
		}
	}
}